…
# vsi <- "/path/to/vsi/image"
vsi <- "/Volumes/Will/Mouse lung 6.10.26/Image_3470.vsi"
has_vsi <- file.exists(vsi)
```

A slide file exposes several image series, each at a handful of
resolution levels. `fq_info()` lists them with pixel dimensions and
effective µm/px — the table `fq_read()` consults to pick the scan series
and a working resolution:

``` r
fq_info(vsi)
#> # A tibble: 24 × 5
#>    series   res size_x size_y um_px
#>     <int> <int>  <int>  <int> <dbl>
#>  1      1     1   8021   9366 0.274
#>  2      1     2   4011   4683 0.548
#>  3      1     3   2006   2342 1.09 
#>  4      1     4   1003   1171 2.19 
#>  5      1     5    502    586 4.37 
#>  6      1     6    251    293 8.75 
#>  7      2     1  18032   9148 0.274
#>  8      2     2   9016   4574 0.548
#>  9      2     3   4508   2287 1.10 
#> 10      2     4   2254   1144 2.19 
#> # ℹ 14 more rows
```
…
